…
rm(df_post, df_prepost, df_es_direct, df_append, cor_es)
#df_clean %>% knitr::kable()
```

### Summary stats

``` r
df_clean %>% count(stdid)
```

    ## # A tibble: 56 x 2
    ##    stdid     n
    ##    <chr> <int>
    ##  1 Apel1     2
    ##  2 Apel2     2
    ##  3 ApelK     1
    ##  4 Arth1     1
    ##  5 Arth2     1
    ##  6 Arth3     1
    ##  7 ArthK     1
    ##  8 Aug       1
    ##  9 Baker     3
    ## 10 Berry     2
    ## # … with 46 more rows

``` r
#df_clean %>% writexl::write_xlsx("df_clean.xlsx")
df_clean %>% count(type, stdid)
```

    ## # A tibble: 114 x 3
    ##    type  stdid       n
    ##    <chr> <chr>   <int>
    ##  1 AS    Jones1      1
    ##  2 AS    Jones2      1
    ##  3 AS    Proc19      1
    ##  4 LR    Baker       1
    ##  5 LR    Conn183     1
    ##  6 LR    Conn184     1
    ##  7 LR    Coyne10     1
    ##  8 LR    Coyne19     1
    ##  9 LR    Jiang1      1
    ## 10 LR    Jiang2      1
    ## # … with 104 more rows
…
