analysis.utf8
…
#df_clean %>% knitr::kable()

Summary stats

df_clean %>% count(stdid)

## # A tibble: 58 x 2
##    stdid     n
##    <chr> <int>
##  1 Apel1     2
##  2 Apel2     2
##  3 ApelK     1
##  4 Apth1     2
##  5 Apth3     2
##  6 ApthK     2
##  7 ApthP     2
##  8 Arth1     1
##  9 Arth2     1
## 10 Arth3     1
## #  with 48 more rows

#df_clean %>% arrange(type, ES) %>% writexl::write_xlsx("df_clean.xlsx")
#df_clean %>% select(stdid, type) %>% arrange(stdid, type) %>% writexl::write_xlsx("temp.xlsx")
df_clean %>% count(type, stdid)

## # A tibble: 115 x 3
##    type  stdid       n
##    <fct> <chr>   <int>
##  1 AS    Jones1      1
##  2 AS    Jones2      1
##  3 AS    Proc19      1
##  4 LR    Apth1       1
##  5 LR    ApthK       1
##  6 LR    Baker       1
##  7 LR    Coyne10     1
##  8 LR    Coyne19     1
##  9 LR    Jiang1      1
## 10 LR    Jiang2      1
## #  with 105 more rows
…
